{
    "data": {
        "auditCommitByFilter": {
            "pageInfo": {
                "cursor": "eyJ1IjoiMDA0NmYzMDItOGYwNC00YmU0LWI5OTgtYmQyNjE4MzkzMmUyIiwibyI6MTAwLCJ0Ijo0OTZ9",
                "pageSize": 100,
                "currentPage": 1,
                "totalPages": 5,
                "totalCount": 496
            },
            "nodes": [
                {
                  "entityId": "659b8ba092541523d9bc3fd9",
                  "type": "guest",
                  "label": "harish GR",
                  "user": "super",
                  "timestamp": "2024-03-14T09:44:47.267Z",
                  "transaction": "8tilxmal5p",
                  "events": [],
                  "changes": [
                    {
                      "path": [
                        {
                          "type": "FIELD",
                          "value": "addresses",
                          "reference": null
                        },
                        {
                          "type": "INDEX",
                          "value": "1",
                          "reference": null
                        },
                        {
                          "type": "FIELD",
                          "value": "city",
                          "reference": null
                        }
                      ],
                      "isCollection": false,
                      "type": "ADD",
                      "from": [],
                      "to": [
                        {
                          "value": "CITY Satellite Office"
                        }
                      ]
                    },
                    {
                      "path": [
                        {
                          "type": "FIELD",
                          "value": "addresses",
                          "reference": null
                        },
                        {
                          "type": "INDEX",
                          "value": "1",
                          "reference": null
                        },
                        {
                          "type": "FIELD",
                          "value": "country",
                          "reference": null
                        }
                      ],
                      "isCollection": false,
                      "type": "ADD",
                      "from": [],
                      "to": [
                        {
                          "value": "India"
                        }
                      ]
                    },
                    {
                      "path": [
                        {
                          "type": "FIELD",
                          "value": "addresses",
                          "reference": null
                        },
                        {
                          "type": "INDEX",
                          "value": "1",
                          "reference": null
                        },
                        {
                          "type": "FIELD",
                          "value": "county",
                          "reference": null
                        }
                      ],
                      "isCollection": false,
                      "type": "ADD",
                      "from": [],
                      "to": [
                        {
                          "value": "STATE/ PROVINCE Satellite Office"
                        }
                      ]
                    },
                    {
                      "path": [
                        {
                          "type": "FIELD",
                          "value": "addresses",
                          "reference": null
                        },
                        {
                          "type": "INDEX",
                          "value": "1",
                          "reference": null
                        },
                        {
                          "type": "FIELD",
                          "value": "default",
                          "reference": null
                        }
                      ],
                      "isCollection": false,
                      "type": "ADD",
                      "from": [],
                      "to": [
                        {
                          "value": "true"
                        }
                      ]
                    },
                    {
                      "path": [
                        {
                          "type": "FIELD",
                          "value": "addresses",
                          "reference": null
                        },
                        {
                          "type": "INDEX",
                          "value": "1",
                          "reference": null
                        },
                        {
                          "type": "FIELD",
                          "value": "defaultForAR",
                          "reference": null
                        }
                      ],
                      "isCollection": false,
                      "type": "ADD",
                      "from": [],
                      "to": [
                        {
                          "value": "false"
                        }
                      ]
                    },
                    {
                      "path": [
                        {
                          "type": "FIELD",
                          "value": "addresses",
                          "reference": null
                        },
                        {
                          "type": "INDEX",
                          "value": "1",
                          "reference": null
                        },
                        {
                          "type": "FIELD",
                          "value": "line1",
                          "reference": null
                        }
                      ],
                      "isCollection": false,
                      "type": "ADD",
                      "from": [],
                      "to": [
                        {
                          "value": "erode"
                        }
                      ]
                    },
                    {
                      "path": [
                        {
                          "type": "FIELD",
                          "value": "addresses",
                          "reference": null
                        },
                        {
                          "type": "INDEX",
                          "value": "1",
                          "reference": null
                        },
                        {
                          "type": "FIELD",
                          "value": "postalCode",
                          "reference": null
                        }
                      ],
                      "isCollection": false,
                      "type": "ADD",
                      "from": [],
                      "to": [
                        {
                          "value": "ZIP/ POSTAL CODE Satellite Office"
                        }
                      ]
                    },
                    {
                      "path": [
                        {
                          "type": "FIELD",
                          "value": "addresses",
                          "reference": null
                        },
                        {
                          "type": "INDEX",
                          "value": "1",
                          "reference": null
                        },
                        {
                          "type": "FIELD",
                          "value": "stateProvince",
                          "reference": null
                        }
                      ],
                      "isCollection": false,
                      "type": "ADD",
                      "from": [],
                      "to": [
                        {
                          "value": "STATE/ PROVINCE Satellite Office"
                        }
                      ]
                    }
                  ]
                },
                {
                  "entityId": "65f2c94cbafef03a4b73d3b7",
                  "type": "guest",
                  "label": "checkin digi",
                  "user": "super",
                  "timestamp": "2024-03-14T09:54:20.925Z",
                  "transaction": "zrocign5jk",
                  "events": [],
                  "changes": [
                    {
                      "path": [
                        {
                          "type": "FIELD",
                          "value": "Profile Status",
                          "reference": null
                        }
                      ],
                      "isCollection": false,
                      "type": "ADD",
                      "from": [],
                      "to": [
                        {
                          "value": "Active"
                        }
                      ]
                    },
                    {
                      "path": [
                        {
                          "type": "FIELD",
                          "value": "firstName",
                          "reference": null
                        }
                      ],
                      "isCollection": false,
                      "type": "ADD",
                      "from": [],
                      "to": [
                        {
                          "value": "checkin"
                        }
                      ]
                    },
                    {
                      "path": [
                        {
                          "type": "FIELD",
                          "value": "lastName",
                          "reference": null
                        }
                      ],
                      "isCollection": false,
                      "type": "ADD",
                      "from": [],
                      "to": [
                        {
                          "value": "digi"
                        }
                      ]
                    },
                    {
                      "path": [
                        {
                          "type": "FIELD",
                          "value": "phones",
                          "reference": null
                        },
                        {
                          "type": "INDEX",
                          "value": "1",
                          "reference": null
                        },
                        {
                          "type": "FIELD",
                          "value": "default",
                          "reference": null
                        }
                      ],
                      "isCollection": false,
                      "type": "ADD",
                      "from": [],
                      "to": [
                        {
                          "value": "true"
                        }
                      ]
                    },
                    {
                      "path": [
                        {
                          "type": "FIELD",
                          "value": "phones",
                          "reference": null
                        },
                        {
                          "type": "INDEX",
                          "value": "1",
                          "reference": null
                        },
                        {
                          "type": "FIELD",
                          "value": "defaultForAR",
                          "reference": null
                        }
                      ],
                      "isCollection": false,
                      "type": "ADD",
                      "from": [],
                      "to": [
                        {
                          "value": "false"
                        }
                      ]
                    },
                    {
                      "path": [
                        {
                          "type": "FIELD",
                          "value": "phones",
                          "reference": null
                        },
                        {
                          "type": "INDEX",
                          "value": "1",
                          "reference": null
                        },
                        {
                          "type": "FIELD",
                          "value": "number",
                          "reference": null
                        }
                      ],
                      "isCollection": false,
                      "type": "ADD",
                      "from": [],
                      "to": [
                        {
                          "value": "0975"
                        }
                      ]
                    },
                    {
                      "path": [
                        {
                          "type": "FIELD",
                          "value": "phones",
                          "reference": null
                        },
                        {
                          "type": "INDEX",
                          "value": "1",
                          "reference": null
                        },
                        {
                          "type": "FIELD",
                          "value": "useForSmsNotifications",
                          "reference": null
                        }
                      ],
                      "isCollection": false,
                      "type": "ADD",
                      "from": [],
                      "to": [
                        {
                          "value": "false"
                        }
                      ]
                    }
                  ]
                },
                {
                  "entityId": "b22877d5-1887-4fd4-b1bf-58cbc029b2b2",
                  "type": "reservation",
                  "label": "3YP73FPCM",
                  "user": "super",
                  "timestamp": "2024-03-14T09:44:21.869Z",
                  "transaction": "ipp0gpklmy",
                  "events": [
                    {
                      "name": "Cancel",
                      "attributes": []
                    }
                  ],
                  "changes": [
                    {
                      "path": [
                        {
                          "type": "FIELD",
                          "value": "cancellation",
                          "reference": null
                        },
                        {
                          "type": "FIELD",
                          "value": "appliedPolicy",
                          "reference": null
                        }
                      ],
                      "isCollection": false,
                      "type": "ADD",
                      "from": [],
                      "to": [
                        {
                          "value": "CXL"
                        }
                      ]
                    },
                    {
                      "path": [
                        {
                          "type": "FIELD",
                          "value": "cancellation",
                          "reference": null
                        },
                        {
                          "type": "FIELD",
                          "value": "code",
                          "reference": null
                        }
                      ],
                      "isCollection": false,
                      "type": "ADD",
                      "from": [],
                      "to": [
                        {
                          "value": "CXL3YP73FPCM"
                        }
                      ]
                    },
                    {
                      "path": [
                        {
                          "type": "FIELD",
                          "value": "cancellation",
                          "reference": null
                        },
                        {
                          "type": "FIELD",
                          "value": "date",
                          "reference": null
                        }
                      ],
                      "isCollection": false,
                      "type": "ADD",
                      "from": [],
                      "to": [
                        {
                          "value": "2023-09-10"
                        }
                      ]
                    },
                    {
                      "path": [
                        {
                          "type": "FIELD",
                          "value": "status",
                          "reference": null
                        }
                      ],
                      "isCollection": false,
                      "type": "UPDATE",
                      "from": [
                        {
                          "value": "RES"
                        }
                      ],
                      "to": [
                        {
                          "value": "CXL"
                        }
                      ]
                    }
                  ]
                },
                {
                  "entityId": "b22877d5-1887-4fd4-b1bf-58cbc029b2b2",
                  "type": "reservation",
                  "label": "3YP73FPCM",
                  "user": "super",
                  "timestamp": "2024-03-14T09:44:31.891Z",
                  "transaction": "stv0lywwkj",
                  "events": [
                    {
                      "name": "UndoCancel",
                      "attributes": []
                    }
                  ],
                  "changes": [
                    {
                      "path": [
                        {
                          "type": "FIELD",
                          "value": "cancellation",
                          "reference": null
                        },
                        {
                          "type": "FIELD",
                          "value": "appliedPolicy",
                          "reference": null
                        }
                      ],
                      "isCollection": false,
                      "type": "REMOVE",
                      "from": [
                        {
                          "value": "CXL"
                        }
                      ],
                      "to": []
                    },
                    {
                      "path": [
                        {
                          "type": "FIELD",
                          "value": "cancellation",
                          "reference": null
                        },
                        {
                          "type": "FIELD",
                          "value": "code",
                          "reference": null
                        }
                      ],
                      "isCollection": false,
                      "type": "REMOVE",
                      "from": [
                        {
                          "value": "CXL3YP73FPCM"
                        }
                      ],
                      "to": []
                    },
                    {
                      "path": [
                        {
                          "type": "FIELD",
                          "value": "cancellation",
                          "reference": null
                        },
                        {
                          "type": "FIELD",
                          "value": "date",
                          "reference": null
                        }
                      ],
                      "isCollection": false,
                      "type": "REMOVE",
                      "from": [
                        {
                          "value": "2023-09-10"
                        }
                      ],
                      "to": []
                    },
                    {
                      "path": [
                        {
                          "type": "FIELD",
                          "value": "status",
                          "reference": null
                        }
                      ],
                      "isCollection": false,
                      "type": "UPDATE",
                      "from": [
                        {
                          "value": "CXL"
                        }
                      ],
                      "to": [
                        {
                          "value": "RES"
                        }
                      ]
                    }
                  ]
                },
                {
                  "entityId": "573ecd5f-2346-4620-8b8c-93db273c7d14",
                  "type": "reservation",
                  "label": "NFKHXYCBG",
                  "user": "super",
                  "timestamp": "2024-03-14T09:59:38.058Z",
                  "transaction": "s21tt6qvql",
                  "events": [
                    {
                      "name": "Cancel",
                      "attributes": []
                    }
                  ],
                  "changes": [
                    {
                      "path": [
                        {
                          "type": "FIELD",
                          "value": "cancellation",
                          "reference": null
                        },
                        {
                          "type": "FIELD",
                          "value": "appliedPolicy",
                          "reference": null
                        }
                      ],
                      "isCollection": false,
                      "type": "ADD",
                      "from": [],
                      "to": [
                        {
                          "value": "CXL"
                        }
                      ]
                    },
                    {
                      "path": [
                        {
                          "type": "FIELD",
                          "value": "cancellation",
                          "reference": null
                        },
                        {
                          "type": "FIELD",
                          "value": "code",
                          "reference": null
                        }
                      ],
                      "isCollection": false,
                      "type": "ADD",
                      "from": [],
                      "to": [
                        {
                          "value": "CXLNFKHXYCBG"
                        }
                      ]
                    },
                    {
                      "path": [
                        {
                          "type": "FIELD",
                          "value": "cancellation",
                          "reference": null
                        },
                        {
                          "type": "FIELD",
                          "value": "date",
                          "reference": null
                        }
                      ],
                      "isCollection": false,
                      "type": "ADD",
                      "from": [],
                      "to": [
                        {
                          "value": "2023-09-10"
                        }
                      ]
                    },
                    {
                      "path": [
                        {
                          "type": "FIELD",
                          "value": "status",
                          "reference": null
                        }
                      ],
                      "isCollection": false,
                      "type": "UPDATE",
                      "from": [
                        {
                          "value": "RES"
                        }
                      ],
                      "to": [
                        {
                          "value": "CXL"
                        }
                      ]
                    }
                  ]
                },
                {
                  "entityId": "573ecd5f-2346-4620-8b8c-93db273c7d14",
                  "type": "reservation",
                  "label": "NFKHXYCBG",
                  "user": "super",
                  "timestamp": "2024-03-14T09:59:47.218Z",
                  "transaction": "z60fhjzmt5",
                  "events": [
                    {
                      "name": "UndoCancel",
                      "attributes": []
                    }
                  ],
                  "changes": [
                    {
                      "path": [
                        {
                          "type": "FIELD",
                          "value": "cancellation",
                          "reference": null
                        },
                        {
                          "type": "FIELD",
                          "value": "appliedPolicy",
                          "reference": null
                        }
                      ],
                      "isCollection": false,
                      "type": "REMOVE",
                      "from": [
                        {
                          "value": "CXL"
                        }
                      ],
                      "to": []
                    },
                    {
                      "path": [
                        {
                          "type": "FIELD",
                          "value": "cancellation",
                          "reference": null
                        },
                        {
                          "type": "FIELD",
                          "value": "code",
                          "reference": null
                        }
                      ],
                      "isCollection": false,
                      "type": "REMOVE",
                      "from": [
                        {
                          "value": "CXLNFKHXYCBG"
                        }
                      ],
                      "to": []
                    },
                    {
                      "path": [
                        {
                          "type": "FIELD",
                          "value": "cancellation",
                          "reference": null
                        },
                        {
                          "type": "FIELD",
                          "value": "date",
                          "reference": null
                        }
                      ],
                      "isCollection": false,
                      "type": "REMOVE",
                      "from": [
                        {
                          "value": "2023-09-10"
                        }
                      ],
                      "to": []
                    },
                    {
                      "path": [
                        {
                          "type": "FIELD",
                          "value": "status",
                          "reference": null
                        }
                      ],
                      "isCollection": false,
                      "type": "UPDATE",
                      "from": [
                        {
                          "value": "CXL"
                        }
                      ],
                      "to": [
                        {
                          "value": "RES"
                        }
                      ]
                    }
                  ]
                }
              ]
        }
    }
}