{
    "data": {
        "auditCommitByFilter": {
            "pageInfo": {
                "cursor": "eyJ1IjoiMDA0NmYzMDItOGYwNC00YmU0LWI5OTgtYmQyNjE4MzkzMmUyIiwibyI6MTAwLCJ0Ijo0OTZ9",
                "pageSize": 100,
                "currentPage": 1,
                "totalPages": 5,
                "totalCount": 496
            },
            "nodes": [
                {
                    "id": "65d39c7858efa5600a9aabc7",
                    "timeStamp": "2024-02-19T18:22:48.398Z",
                    "entityType": "guest",
                    "user": "super",
                    "label": "kdz+ansssss",
                    "changes": [
                        {
                            "from": "India",
                            "path": "addresses/:1/country",
                            "source": null,
                            "to": "Hong+Kong%2C+China",
                            "operation": "UPDATE"
                        },
                        {
                            "from": "Tamil%C2%A0Nadu",
                            "path": "addresses/:1/county",
                            "source": null,
                            "to": "Chennai",
                            "operation": "UPDATE"
                        }
                    ]
                },
                {
                    "id": "65d4224e58efa5600ab05236",
                    "timeStamp": "2024-02-20T03:53:50.741Z",
                    "entityType": "guest",
                    "user": "super1",
                    "label": "Put+_Incognito_2",
                    "changes": [
                        {
                            "from": null,
                            "path": "Profile+Status",
                            "source": null,
                            "to": "Active",
                            "operation": "ADD"
                        },
                        {
                            "from": null,
                            "path": "addresses/:1/city",
                            "source": null,
                            "to": "Vancouver",
                            "operation": "ADD"
                        },
                        {
                            "from": null,
                            "path": "addresses/:1/country",
                            "source": null,
                            "to": "Canada",
                            "operation": "ADD"
                        },
                        {
                            "from": null,
                            "path": "addresses/:1/county",
                            "source": null,
                            "to": "BC",
                            "operation": "ADD"
                        },
                        {
                            "from": null,
                            "path": "addresses/:1/default",
                            "source": null,
                            "to": "true",
                            "operation": "ADD"
                        },
                        {
                            "from": null,
                            "path": "addresses/:1/defaultForAR",
                            "source": null,
                            "to": "false",
                            "operation": "ADD"
                        },
                        {
                            "from": null,
                            "path": "addresses/:1/line1",
                            "source": null,
                            "to": "kkk",
                            "operation": "ADD"
                        },
                        {
                            "from": null,
                            "path": "addresses/:1/postalCode",
                            "source": null,
                            "to": "V6B+1S9",
                            "operation": "ADD"
                        },
                        {
                            "from": null,
                            "path": "addresses/:1/stateProvince",
                            "source": null,
                            "to": "BC",
                            "operation": "ADD"
                        },
                        {
                            "from": null,
                            "path": "addresses/:1/type",
                            "source": null,
                            "to": "Home",
                            "operation": "ADD"
                        },
                        {
                            "from": null,
                            "path": "emails/:1/default",
                            "source": null,
                            "to": "true",
                            "operation": "ADD"
                        },
                        {
                            "from": null,
                            "path": "emails/:1/defaultForAR",
                            "source": null,
                            "to": "false",
                            "operation": "ADD"
                        },
                        {
                            "from": null,
                            "path": "emails/:1/emailAddress",
                            "source": null,
                            "to": "tampa%40agilysys.com",
                            "operation": "ADD"
                        },
                        {
                            "from": null,
                            "path": "firstName",
                            "source": null,
                            "to": "Put",
                            "operation": "ADD"
                        },
                        {
                            "from": null,
                            "path": "lastName",
                            "source": null,
                            "to": "_Incognito_2",
                            "operation": "ADD"
                        },
                        {
                            "from": null,
                            "path": "phones/:1/default",
                            "source": null,
                            "to": "true",
                            "operation": "ADD"
                        },
                        {
                            "from": null,
                            "path": "phones/:1/defaultForAR",
                            "source": null,
                            "to": "false",
                            "operation": "ADD"
                        },
                        {
                            "from": null,
                            "path": "phones/:1/number",
                            "source": null,
                            "to": "09876543210",
                            "operation": "ADD"
                        },
                        {
                            "from": null,
                            "path": "phones/:1/type",
                            "source": null,
                            "to": "Cellular",
                            "operation": "ADD"
                        },
                        {
                            "from": null,
                            "path": "phones/:1/useForSmsNotifications",
                            "source": null,
                            "to": "false",
                            "operation": "ADD"
                        }
                    ]
                }
            ]
        }
    }
}